Jula	English
bagaman	termite
bágan	animal
bamba	crocodile
bása	gecko lizard
bin	vegetation (herbs)
bú	
dabi	flee
dagbɛ	hypotraga (antilope)
dondoli	wasp
dòndon	coq
dònso	
dugumɛnɛ	ant
dugumɛnɛ siman	flying ant
fàli	donkey
firinfirin	butterfly
gangan	crab
gbolo	
jaraden	lion cub
jása	lion
jɛ́gɛ	
jùru	
kaankaan	crow
kàmi	
kongo baa	mountain goat
kongo sogow	wild animals
kongo wulu	wolf
koɲena	agouti
kɔ̀kɔti	pig pig
kɔnɔn dakalajan	humming bird
kɔ̀nɔnin	bird
liden	bee
límɔgɔ	fly
màngalanin	doe
meeri	hippopotamus
mininyan ba	large python
mìsi	
misiden	calf
misi / misi muso	cow
misi tora	bull
ɲɛmbɛrɛ	cockroach
ɲìnan	mouse
ɲɔ̀gɔmɛ	camel
saa	snake
sagaden	lamb
sagajigi	ram
sàga	sheep
sàma	elephant
segɛn	eagle
selandri	salamander
sìsɛ	chicken
sògo	
sò	horse
sòso	mosquito
sozani	rabbit
sɔ	antilope
sùla	monkey
súruku	
talen	
tonso	bat
tòto	rat
tɔɔn	cricket / grasshopper
tɔri sen jan	frog
tɔri	toad
tumu	worm
vɔvɔni	
waraninkalan	panther
wára	wild cat
warawulen	
wata juba	mongoose
wuluden	puppy
wùlu	dog
